…
city_models
```

    ## # A tibble: 47 × 8
    ## # Groups:   city_state [47]
    ##    city_state     term  estimate std.error statistic  p.value conf.low conf.high
    ##    <chr>          <chr>    <dbl>     <dbl>     <dbl>    <dbl>    <dbl>     <dbl>
    ##  1 New York, NY   vict…    0.262     0.328     -4.08 4.54e- 5    0.133     0.485
    ##  2 Baton Rouge, … vict…    0.381     0.306     -3.15 1.65e- 3    0.204     0.684
    ##  3 Omaha, NE      vict…    0.382     0.323     -2.97 2.95e- 3    0.199     0.711
    ##  4 Cincinnati, OH vict…    0.400     0.269     -3.41 6.49e- 4    0.231     0.667
    ##  5 Chicago, IL    vict…    0.410     0.102     -8.77 1.86e-18    0.336     0.501
    ##  6 Long Beach, CA vict…    0.410     0.495     -1.80 7.18e- 2    0.143     1.02 
    ##  7 San Diego, CA  vict…    0.413     0.371     -2.38 1.72e- 2    0.191     0.830
    ##  8 Baltimore, MD  vict…    0.426     0.138     -6.18 6.26e-10    0.324     0.558
    ##  9 Pittsburgh, PA vict…    0.431     0.248     -3.40 6.72e- 4    0.263     0.696
    ## 10 Denver, CO     vict…    0.479     0.360     -2.04 4.11e- 2    0.233     0.962
    ## # ℹ 37 more rows
…
